<mxfile host="app.diagrams.net" modified="2021-04-11T16:15:44.115Z" agent="5.0 (Windows NT 6.3; Win64; x64) AppleWebKit/537.36 (KHTML, like Gecko) Chrome/89.0.4389.114 Safari/537.36" etag="EOILAytjCDa0ZWT6J-BF" version="14.5.8" type="gitlab">
  <diagram id="ryphr4bSCgjN7cTE1aq7" name="Page-2">
    <mxGraphModel dx="1422" dy="794" grid="1" gridSize="10" guides="1" tooltips="1" connect="1" arrows="1" fold="1" page="1" pageScale="1" pageWidth="827" pageHeight="1169" math="0" shadow="0">
      <root>
        <mxCell id="dxLcmv_BDE0FKchjT4A9-0" />
        <mxCell id="dxLcmv_BDE0FKchjT4A9-1" parent="dxLcmv_BDE0FKchjT4A9-0" />
        <mxCell id="GFtUS0670I79uEb5VIOG-14" style="edgeStyle=orthogonalEdgeStyle;rounded=0;orthogonalLoop=1;jettySize=auto;html=1;exitX=1;exitY=0.5;exitDx=0;exitDy=0;entryX=0;entryY=0.5;entryDx=0;entryDy=0;endArrow=ERoneToMany;endFill=0;startArrow=ERmandOne;startFill=0;" edge="1" parent="dxLcmv_BDE0FKchjT4A9-1" source="g4zPGT1PCzPjtWULa2kT-0" target="GFtUS0670I79uEb5VIOG-0">
          <mxGeometry relative="1" as="geometry" />
        </mxCell>
        <mxCell id="g4zPGT1PCzPjtWULa2kT-0" value="Sales representative" style="swimlane;fontStyle=0;childLayout=stackLayout;horizontal=1;startSize=26;horizontalStack=0;resizeParent=1;resizeParentMax=0;resizeLast=0;collapsible=1;marginBottom=0;align=center;fontSize=14;" parent="dxLcmv_BDE0FKchjT4A9-1" vertex="1">
          <mxGeometry x="90" y="130" width="160" height="110" as="geometry" />
        </mxCell>
        <mxCell id="GFtUS0670I79uEb5VIOG-0" value="Invoice" style="swimlane;fontStyle=0;childLayout=stackLayout;horizontal=1;startSize=26;horizontalStack=0;resizeParent=1;resizeParentMax=0;resizeLast=0;collapsible=1;marginBottom=0;align=center;fontSize=14;" vertex="1" parent="dxLcmv_BDE0FKchjT4A9-1">
          <mxGeometry x="420" y="130" width="170" height="110" as="geometry" />
        </mxCell>
        <mxCell id="GFtUS0670I79uEb5VIOG-17" style="edgeStyle=orthogonalEdgeStyle;rounded=0;orthogonalLoop=1;jettySize=auto;html=1;exitX=0.5;exitY=0;exitDx=0;exitDy=0;entryX=0.5;entryY=1;entryDx=0;entryDy=0;startArrow=ERmandOne;startFill=0;endArrow=ERoneToMany;endFill=0;" edge="1" parent="dxLcmv_BDE0FKchjT4A9-1" source="GFtUS0670I79uEb5VIOG-4" target="g4zPGT1PCzPjtWULa2kT-0">
          <mxGeometry relative="1" as="geometry" />
        </mxCell>
        <mxCell id="GFtUS0670I79uEb5VIOG-4" value="Department" style="swimlane;fontStyle=0;childLayout=stackLayout;horizontal=1;startSize=26;horizontalStack=0;resizeParent=1;resizeParentMax=0;resizeLast=0;collapsible=1;marginBottom=0;align=center;fontSize=14;" vertex="1" parent="dxLcmv_BDE0FKchjT4A9-1">
          <mxGeometry x="90" y="360" width="160" height="110" as="geometry" />
        </mxCell>
        <mxCell id="GFtUS0670I79uEb5VIOG-16" style="edgeStyle=orthogonalEdgeStyle;rounded=0;orthogonalLoop=1;jettySize=auto;html=1;exitX=0.5;exitY=0;exitDx=0;exitDy=0;startArrow=ERmandOne;startFill=0;endArrow=ERoneToMany;endFill=0;" edge="1" parent="dxLcmv_BDE0FKchjT4A9-1" source="GFtUS0670I79uEb5VIOG-8">
          <mxGeometry relative="1" as="geometry">
            <mxPoint x="505" y="250" as="targetPoint" />
            <Array as="points">
              <mxPoint x="505" y="250" />
              <mxPoint x="505" y="250" />
            </Array>
          </mxGeometry>
        </mxCell>
        <mxCell id="GFtUS0670I79uEb5VIOG-8" value="Customer" style="swimlane;fontStyle=0;childLayout=stackLayout;horizontal=1;startSize=26;horizontalStack=0;resizeParent=1;resizeParentMax=0;resizeLast=0;collapsible=1;marginBottom=0;align=center;fontSize=14;" vertex="1" parent="dxLcmv_BDE0FKchjT4A9-1">
          <mxGeometry x="420" y="350" width="170" height="120" as="geometry" />
        </mxCell>
        <mxCell id="GFtUS0670I79uEb5VIOG-18" value="writes" style="text;html=1;align=center;verticalAlign=middle;resizable=0;points=[];autosize=1;strokeColor=none;" vertex="1" parent="dxLcmv_BDE0FKchjT4A9-1">
          <mxGeometry x="295" y="160" width="50" height="20" as="geometry" />
        </mxCell>
        <mxCell id="GFtUS0670I79uEb5VIOG-19" value="writes" style="text;html=1;align=center;verticalAlign=middle;resizable=0;points=[];autosize=1;strokeColor=none;" vertex="1" parent="dxLcmv_BDE0FKchjT4A9-1">
          <mxGeometry x="505" y="290" width="50" height="20" as="geometry" />
        </mxCell>
        <mxCell id="GFtUS0670I79uEb5VIOG-20" value="has" style="text;html=1;align=center;verticalAlign=middle;resizable=0;points=[];autosize=1;strokeColor=none;" vertex="1" parent="dxLcmv_BDE0FKchjT4A9-1">
          <mxGeometry x="185" y="290" width="30" height="20" as="geometry" />
        </mxCell>
        <mxCell id="GFtUS0670I79uEb5VIOG-21" value="ID:int" style="text;html=1;align=center;verticalAlign=middle;resizable=0;points=[];autosize=1;strokeColor=none;" vertex="1" parent="dxLcmv_BDE0FKchjT4A9-1">
          <mxGeometry x="100" y="160" width="40" height="20" as="geometry" />
        </mxCell>
        <mxCell id="GFtUS0670I79uEb5VIOG-23" value="&amp;nbsp; &amp;nbsp; &amp;nbsp; dep_id" style="text;html=1;align=center;verticalAlign=middle;resizable=0;points=[];autosize=1;strokeColor=none;" vertex="1" parent="dxLcmv_BDE0FKchjT4A9-1">
          <mxGeometry x="75" y="190" width="70" height="20" as="geometry" />
        </mxCell>
        <mxCell id="GFtUS0670I79uEb5VIOG-24" value="ID:int" style="text;html=1;align=center;verticalAlign=middle;resizable=0;points=[];autosize=1;strokeColor=none;" vertex="1" parent="dxLcmv_BDE0FKchjT4A9-1">
          <mxGeometry x="430" y="160" width="40" height="20" as="geometry" />
        </mxCell>
        <mxCell id="GFtUS0670I79uEb5VIOG-31" value="&amp;nbsp; &amp;nbsp; &amp;nbsp; &amp;nbsp; &amp;nbsp; &amp;nbsp; &amp;nbsp; &amp;nbsp; &amp;nbsp; &amp;nbsp; &amp;nbsp; sales_rep_id:int" style="text;html=1;align=center;verticalAlign=middle;resizable=0;points=[];autosize=1;strokeColor=none;" vertex="1" parent="dxLcmv_BDE0FKchjT4A9-1">
          <mxGeometry x="355" y="190" width="170" height="20" as="geometry" />
        </mxCell>
        <mxCell id="GFtUS0670I79uEb5VIOG-34" value="ID:int" style="text;html=1;align=center;verticalAlign=middle;resizable=0;points=[];autosize=1;strokeColor=none;" vertex="1" parent="dxLcmv_BDE0FKchjT4A9-1">
          <mxGeometry x="90" y="400" width="40" height="20" as="geometry" />
        </mxCell>
        <mxCell id="GFtUS0670I79uEb5VIOG-35" value="&amp;nbsp; &amp;nbsp; ID:int" style="text;html=1;align=center;verticalAlign=middle;resizable=0;points=[];autosize=1;strokeColor=none;" vertex="1" parent="dxLcmv_BDE0FKchjT4A9-1">
          <mxGeometry x="400" y="380" width="60" height="20" as="geometry" />
        </mxCell>
        <mxCell id="GFtUS0670I79uEb5VIOG-36" value="name" style="text;html=1;align=center;verticalAlign=middle;resizable=0;points=[];autosize=1;strokeColor=none;" vertex="1" parent="dxLcmv_BDE0FKchjT4A9-1">
          <mxGeometry x="85" y="430" width="50" height="20" as="geometry" />
        </mxCell>
        <mxCell id="LW2wLT6vVz_1w_Y6nyyw-26" style="edgeStyle=orthogonalEdgeStyle;rounded=0;orthogonalLoop=1;jettySize=auto;html=1;exitX=1;exitY=0.5;exitDx=0;exitDy=0;entryX=-0.075;entryY=1.2;entryDx=0;entryDy=0;entryPerimeter=0;startArrow=ERmandOne;startFill=0;endArrow=ERoneToMany;endFill=0;" edge="1" parent="dxLcmv_BDE0FKchjT4A9-1" source="LW2wLT6vVz_1w_Y6nyyw-0" target="LW2wLT6vVz_1w_Y6nyyw-12">
          <mxGeometry relative="1" as="geometry" />
        </mxCell>
        <mxCell id="LW2wLT6vVz_1w_Y6nyyw-0" value="Medications" style="swimlane;fontStyle=0;childLayout=stackLayout;horizontal=1;startSize=26;horizontalStack=0;resizeParent=1;resizeParentMax=0;resizeLast=0;collapsible=1;marginBottom=0;align=center;fontSize=14;" vertex="1" parent="dxLcmv_BDE0FKchjT4A9-1">
          <mxGeometry x="90" y="580" width="160" height="130" as="geometry" />
        </mxCell>
        <mxCell id="LW2wLT6vVz_1w_Y6nyyw-4" value="ID:int" style="text;html=1;align=center;verticalAlign=middle;resizable=0;points=[];autosize=1;strokeColor=none;" vertex="1" parent="dxLcmv_BDE0FKchjT4A9-1">
          <mxGeometry x="90" y="610" width="40" height="20" as="geometry" />
        </mxCell>
        <mxCell id="LW2wLT6vVz_1w_Y6nyyw-5" value="&amp;nbsp; &amp;nbsp;order_id" style="text;html=1;align=center;verticalAlign=middle;resizable=0;points=[];autosize=1;strokeColor=none;" vertex="1" parent="dxLcmv_BDE0FKchjT4A9-1">
          <mxGeometry x="75" y="640" width="70" height="20" as="geometry" />
        </mxCell>
        <mxCell id="LW2wLT6vVz_1w_Y6nyyw-6" value="Order" style="swimlane;fontStyle=0;childLayout=stackLayout;horizontal=1;startSize=26;horizontalStack=0;resizeParent=1;resizeParentMax=0;resizeLast=0;collapsible=1;marginBottom=0;align=center;fontSize=14;" vertex="1" parent="dxLcmv_BDE0FKchjT4A9-1">
          <mxGeometry x="420" y="580" width="160" height="120" as="geometry" />
        </mxCell>
        <mxCell id="LW2wLT6vVz_1w_Y6nyyw-12" value="ID:int" style="text;html=1;align=center;verticalAlign=middle;resizable=0;points=[];autosize=1;strokeColor=none;" vertex="1" parent="dxLcmv_BDE0FKchjT4A9-1">
          <mxGeometry x="430" y="620" width="40" height="20" as="geometry" />
        </mxCell>
        <mxCell id="LW2wLT6vVz_1w_Y6nyyw-13" value="&amp;nbsp; &amp;nbsp; &amp;nbsp; patient_id" style="text;html=1;align=center;verticalAlign=middle;resizable=0;points=[];autosize=1;strokeColor=none;" vertex="1" parent="dxLcmv_BDE0FKchjT4A9-1">
          <mxGeometry x="405" y="650" width="90" height="20" as="geometry" />
        </mxCell>
        <mxCell id="LW2wLT6vVz_1w_Y6nyyw-27" style="edgeStyle=orthogonalEdgeStyle;rounded=0;orthogonalLoop=1;jettySize=auto;html=1;exitX=0.5;exitY=0;exitDx=0;exitDy=0;entryX=0.5;entryY=1;entryDx=0;entryDy=0;startArrow=ERmandOne;startFill=0;endArrow=ERoneToMany;endFill=0;" edge="1" parent="dxLcmv_BDE0FKchjT4A9-1" source="LW2wLT6vVz_1w_Y6nyyw-14" target="LW2wLT6vVz_1w_Y6nyyw-6">
          <mxGeometry relative="1" as="geometry" />
        </mxCell>
        <mxCell id="LW2wLT6vVz_1w_Y6nyyw-14" value="Patient" style="swimlane;fontStyle=0;childLayout=stackLayout;horizontal=1;startSize=26;horizontalStack=0;resizeParent=1;resizeParentMax=0;resizeLast=0;collapsible=1;marginBottom=0;align=center;fontSize=14;" vertex="1" parent="dxLcmv_BDE0FKchjT4A9-1">
          <mxGeometry x="415" y="800" width="170" height="120" as="geometry" />
        </mxCell>
        <mxCell id="LW2wLT6vVz_1w_Y6nyyw-19" value="&amp;nbsp; ID:int" style="text;html=1;align=center;verticalAlign=middle;resizable=0;points=[];autosize=1;strokeColor=none;" vertex="1" parent="dxLcmv_BDE0FKchjT4A9-1">
          <mxGeometry x="415" y="830" width="50" height="20" as="geometry" />
        </mxCell>
      </root>
    </mxGraphModel>
  </diagram>
</mxfile>
